 [{
        "text": ":)",
        "code": "&#128522;"
    }, {
        "text": ":D",
        "code": "&#128512;"
    }, {
        "text": ":d",
        "code": "&#128523;"
    }, {
        "text": ":(",
        "code": "&#128543;"
    }, {
        "text": ":/",
        "code": "&#128533;"
    }, {
        "text": ":P",
        "code": "&#128540;"
    }, {
        "text": ":p",
        "code": "&#128540;"
    }, {
        "text": ":P",
        "code": "&#128540;"
    }, {
        "text": "3:)",
        "code": "&#128516;"
    }, {
        "text": ";)",
        "code": "&#128521;"
    }, {
        "text": ":o",
        "code": "&#128562;"
    }, {
        "text": "-_-",
        "code": "&#128529;"
    }, {
        "text": ":*",
        "code": "&#128536;"
    }, {
        "text": "^_^",
        "code": "&#128522;"
    }, {
        "text": ":S",
        "code": "&#128534;"
    }, {
        "text": ":s",
        "code": "&#128534;"
    }]